{"data":{"curPage":1,"datas":[{"apkLink":"","audit":1,"author":"cdalwyn","canEdit":false,"chapterId":294,"chapterName":"完整项目","collect":false,"courseId":13,"desc":"基于Mvvm模式集成谷歌官方推荐的JetPack组件库LiveData+ViewModel+DataBinding，以ARouter为组件路由，\r\n集成了登录注册、收藏、分享、搜索、浏览热门博客和项目、添加Todo待办功能等，Koin实现依赖注入、Retrofit+Rxjava2组合实现网络请求、腾讯MMKV实现高性能缓存等","descMd":"","envelopePic":"https://www.wanandroid.com/resources/image/pc/default_project_img.jpg","fresh":false,"host":"","id":17630,"link":"https://www.wanandroid.com/blog/show/2960","niceDate":"2021-03-15 00:47","niceShareDate":"2021-03-15 00:47","origin":"","prefix":"","projectLink":"https://github.com/cdalwyn/mvvmcomponent","publishTime":1615740436000,"realSuperChapterId":293,"selfVisible":0,"shareDate":1615740436000,"shareUser":"","superChapterId":294,"superChapterName":"开源项目主Tab","tags":[{"name":"项目","url":"/project/list/1?cid=294"}],"title":"Kotlin开发的 Jetpack+Mvvm+组件化 玩安卓客户端","type":0,"userId":-1,"visible":1,"zan":0},{"apkLink":"","audit":1,"author":"czy1121","canEdit":false,"chapterId":539,"chapterName":"未分类","collect":false,"courseId":13,"desc":"Kotlin + Flow 实现的 Android 应用初始化任务启动库","descMd":"","envelopePic":"https://www.wanandroid.com/resources/image/pc/default_project_img.jpg","fresh":false,"host":"","id":17599,"link":"https://www.wanandroid.com/blog/show/2959","niceDate":"2021-03-11 22:44","niceShareDate":"2021-03-11 22:44","origin":"","prefix":"","projectLink":"https://github.com/czy1121/init","publishTime":1615473888000,"realSuperChapterId":293,"selfVisible":0,"shareDate":1615473888000,"shareUser":"","superChapterId":294,"superChapterName":"开源项目主Tab","tags":[{"name":"项目","url":"/project/list/1?cid=539"}],"title":"Kotlin + Flow 实现的 Android 应用初始化任务启动库","type":0,"userId":-1,"visible":1,"zan":0},{"apkLink":"","audit":1,"author":"jenly1314","canEdit":false,"chapterId":539,"chapterName":"未分类","collect":false,"courseId":13,"desc":"MVVMFrameComponent一个采用JetPack构建的组件化方案\r\n\r\n主要使用的核心技术\r\nJetPack(Lifecycle，LiveData，ViewModel，Room，Hilt)\r\nDagger\r\nDataBinding\r\nRetrofit\r\nOkHttp\r\nGlide\r\nKotlin coroutines\r\nARouter","descMd":"","envelopePic":"https://www.wanandroid.com/resources/image/pc/default_project_img.jpg","fresh":false,"host":"","id":17576,"link":"https://www.wanandroid.com/blog/show/2956","niceDate":"2021-03-09 23:17","niceShareDate":"2021-03-09 23:17","origin":"","prefix":"","projectLink":"https://github.com/jenly1314/MVVMFrameComponent","publishTime":1615303072000,"realSuperChapterId":293,"selfVisible":0,"shareDate":1615303072000,"shareUser":"","superChapterId":294,"superChapterName":"开源项目主Tab","tags":[{"name":"项目","url":"/project/list/1?cid=539"}],"title":"MVVMFrameComponent一个采用JetPack构建的组件化方案","type":0,"userId":-1,"visible":1,"zan":0},{"apkLink":"","audit":1,"author":"czy1121","canEdit":false,"chapterId":539,"chapterName":"未分类","collect":false,"courseId":13,"desc":"使用 Coroutine + Retrofit 打造的更简单HTTP请求库","descMd":"","envelopePic":"https://www.wanandroid.com/resources/image/pc/default_project_img.jpg","fresh":false,"host":"","id":17565,"link":"https://www.wanandroid.com/blog/show/2955","niceDate":"2021-03-09 00:30","niceShareDate":"2021-03-09 00:30","origin":"","prefix":"","projectLink":"https://github.com/czy1121/httpcall","publishTime":1615221009000,"realSuperChapterId":293,"selfVisible":0,"shareDate":1615221009000,"shareUser":"","superChapterId":294,"superChapterName":"开源项目主Tab","tags":[{"name":"项目","url":"/project/list/1?cid=539"}],"title":"使用 Coroutine + Retrofit 打造的更简单HTTP请求库","type":0,"userId":-1,"visible":1,"zan":0},{"apkLink":"","audit":1,"author":"kingofglory","canEdit":false,"chapterId":294,"chapterName":"完整项目","collect":false,"courseId":13,"desc":"EasyPay(易支付)集成并高度封装了Android平台的微信支付，支付宝支付以银联支付。使用此库，开发者可以使用简单轻松方便的 Api 实现支付功能，大量节省集成配置时间。","descMd":"","envelopePic":"https://www.wanandroid.com/blogimgs/1cbc8f91-6610-4488-9967-e06af2bd8fb6.png","fresh":false,"host":"","id":17526,"link":"https://www.wanandroid.com/blog/show/2954","niceDate":"2021-03-04 22:40","niceShareDate":"2021-03-04 22:40","origin":"","prefix":"","projectLink":"https://github.com/kingofglory/EasyPay","publishTime":1614868803000,"realSuperChapterId":293,"selfVisible":0,"shareDate":1614868803000,"shareUser":"","superChapterId":294,"superChapterName":"开源项目主Tab","tags":[{"name":"项目","url":"/project/list/1?cid=294"}],"title":"EasyPay v2.0.0正式发布----让Android支付功能集成极限提速","type":0,"userId":-1,"visible":1,"zan":0},{"apkLink":"","audit":1,"author":"drchengit","canEdit":false,"chapterId":539,"chapterName":"未分类","collect":false,"courseId":13,"desc":"对 jessyan mvpArms 框架的进行Robolectric 网络单元测试的解耦，如果用这框架可以看看。","descMd":"","envelopePic":"https://www.wanandroid.com/resources/image/pc/default_project_img.jpg","fresh":false,"host":"","id":17513,"link":"https://www.wanandroid.com/blog/show/2953","niceDate":"2021-03-03 23:07","niceShareDate":"2021-03-03 23:07","origin":"","prefix":"","projectLink":"https://github.com/drchengit/Robolectric_arm_mvp","publishTime":1614784060000,"realSuperChapterId":293,"selfVisible":0,"shareDate":1614784060000,"shareUser":"","superChapterId":294,"superChapterName":"开源项目主Tab","tags":[{"name":"项目","url":"/project/list/1?cid=539"}],"title":"jessYan MvpArms  Robolectric 测试解耦全过程","type":0,"userId":-1,"visible":1,"zan":0},{"apkLink":"","audit":1,"author":"liuxiaoliu66","canEdit":false,"chapterId":539,"chapterName":"未分类","collect":false,"courseId":13,"desc":"MandySaX 是一个开源库，可加快 Android 程序开发。 它支持响应式编程，有 viewmodel，支持 activity 和 fragment 生命周期管理，更近 MandySaX 也为自己的 activity 开发了属于自己的 fragment。MandySaX 多用于 MVVM 架构的轻量级应用，欢迎 start。\r\n\r\n","descMd":"","envelopePic":"https://www.wanandroid.com/resources/image/pc/default_project_img.jpg","fresh":false,"host":"","id":17495,"link":"https://www.wanandroid.com/blog/show/2950","niceDate":"2021-03-02 22:42","niceShareDate":"2021-03-02 22:42","origin":"","prefix":"","projectLink":"https://github.com/liuxiaoliu66/MandySaX","publishTime":1614696130000,"realSuperChapterId":293,"selfVisible":0,"shareDate":1614696130000,"shareUser":"","superChapterId":294,"superChapterName":"开源项目主Tab","tags":[{"name":"项目","url":"/project/list/1?cid=539"}],"title":" MandySaX  可加快 Android 程序开发。 它支持响应式编程，多用于 MVVM 架构的轻量级应用","type":0,"userId":-1,"visible":1,"zan":0},{"apkLink":"","audit":1,"author":"longer96","canEdit":false,"chapterId":539,"chapterName":"未分类","collect":false,"courseId":13,"desc":"flutter 选择器库，包括日期及时间选择器（可设置范围）、单项选择器（可用于性别、民族、学历、星座、年龄、身高、体重、温度等）、城市地址选择器（分省级、地级及县级）、多项选择器等…… 欢迎Fork & pr贡献您的代码，大家共同学习","descMd":"","envelopePic":"https://www.wanandroid.com/blogimgs/ecdf07f8-d45d-4a37-9279-d97eaea1e4ae.png","fresh":false,"host":"","id":17450,"link":"https://www.wanandroid.com/blog/show/2946","niceDate":"2021-02-26 22:45","niceShareDate":"2021-02-26 22:45","origin":"","prefix":"","projectLink":"https://github.com/longer96/flutter_pickers","publishTime":1614350712000,"realSuperChapterId":293,"selfVisible":0,"shareDate":1614350712000,"shareUser":"","superChapterId":294,"superChapterName":"开源项目主Tab","tags":[{"name":"项目","url":"/project/list/1?cid=539"}],"title":"flutter 选择器","type":0,"userId":-1,"visible":1,"zan":0},{"apkLink":"","audit":1,"author":"laiyuling424","canEdit":false,"chapterId":294,"chapterName":"完整项目","collect":false,"courseId":13,"desc":"在学习了kotlin之后的一个练手项目，项目涉及到了一些jetpack的东西，实现了wanandroid网页上的首页，包含顶部轮播图和数据列表，常用网站，项目，体系，导航，帐号登录，搜索，包含热搜和搜索历史，公众号功能。","descMd":"","envelopePic":"https://www.wanandroid.com/blogimgs/b719e16a-6a0c-40e3-92f2-3f3fbddaee2f.png","fresh":false,"host":"","id":17427,"link":"https://www.wanandroid.com/blog/show/2945","niceDate":"2021-02-25 22:16","niceShareDate":"2021-02-25 22:16","origin":"","prefix":"","projectLink":"https://github.com/laiyuling424/lylproject","publishTime":1614262610000,"realSuperChapterId":293,"selfVisible":0,"shareDate":1614262610000,"shareUser":"","superChapterId":294,"superChapterName":"开源项目主Tab","tags":[{"name":"项目","url":"/project/list/1?cid=294"}],"title":"mvvm的wanandroid客户端","type":0,"userId":-1,"visible":1,"zan":0},{"apkLink":"","audit":1,"author":"gdutxiaoxu","canEdit":false,"chapterId":294,"chapterName":"完整项目","collect":false,"courseId":13,"desc":"锚点任务，可以用来解决多线程加载任务依赖的问题。常见的，比如 Android 启动优化，通常会进行多线程异步加载。\r\n\r\n它的实现原理是通过有向无环图的拓扑排序解决的。","descMd":"","envelopePic":"https://wanandroid.com/resources/image/pc/default_project_img.jpg","fresh":false,"host":"","id":17412,"link":"https://www.wanandroid.com/blog/show/2944","niceDate":"2021-02-24 23:11","niceShareDate":"2021-02-24 23:11","origin":"","prefix":"","projectLink":"https://github.com/gdutxiaoxu/AnchorTask","publishTime":1614179475000,"realSuperChapterId":293,"selfVisible":0,"shareDate":1614179475000,"shareUser":"","superChapterId":294,"superChapterName":"开源项目主Tab","tags":[{"name":"项目","url":"/project/list/1?cid=294"}],"title":"AnchorTask - Android 启动优化 ","type":0,"userId":-1,"visible":1,"zan":0},{"apkLink":"","audit":1,"author":"yetel","canEdit":false,"chapterId":294,"chapterName":"完整项目","collect":false,"courseId":13,"desc":"EasyChat是一款开源的社交类的App。主要包含消息、好友、群组等相关的IM核心功能。部分界面参照了QQ、微信等相关社交APP。EasyChat APP采用MVVM模式构建。","descMd":"","envelopePic":"https://www.wanandroid.com/blogimgs/2efab4c3-4500-4980-ba31-0ca14098c6e0.png","fresh":false,"host":"","id":17387,"link":"https://www.wanandroid.com/blog/show/2943","niceDate":"2021-02-23 23:27","niceShareDate":"2021-02-23 23:27","origin":"","prefix":"","projectLink":"https://github.com/yetel/EasyChatAndroidClient","publishTime":1614094021000,"realSuperChapterId":293,"selfVisible":0,"shareDate":1614094021000,"shareUser":"","superChapterId":294,"superChapterName":"开源项目主Tab","tags":[{"name":"项目","url":"/project/list/1?cid=294"}],"title":"EasyChat是一款开源的社交类的App。主要包含消息、好友、群组等相关的IM核心功能","type":0,"userId":-1,"visible":1,"zan":0},{"apkLink":"","audit":1,"author":"RuffianZhong","canEdit":false,"chapterId":539,"chapterName":"未分类","collect":false,"courseId":13,"desc":"本项目使用 MVVM 模式架构，使用 Jetpack 组件实现，功能代码实现组件化，目标是编写一个 玩安卓 客户端\r\n目前 MVVM 框架已经完成，Http 框架已经完成。玩安卓客户端功能代码正在进行中，组件化将在基础功能实现之后完成，请持续关注。。。","descMd":"","envelopePic":"https://www.wanandroid.com/resources/image/pc/default_project_img.jpg","fresh":false,"host":"","id":17386,"link":"https://www.wanandroid.com/blog/show/2942","niceDate":"2021-02-23 23:24","niceShareDate":"2021-02-23 23:24","origin":"","prefix":"","projectLink":"https://github.com/RuffianZhong/JetpackMVVM","publishTime":1614093892000,"realSuperChapterId":293,"selfVisible":0,"shareDate":1614093892000,"shareUser":"","superChapterId":294,"superChapterName":"开源项目主Tab","tags":[{"name":"项目","url":"/project/list/1?cid=539"}],"title":"MVVM+Jetpack+组件化模式架构项目","type":0,"userId":-1,"visible":1,"zan":0},{"apkLink":"","audit":1,"author":"mouxuefei","canEdit":false,"chapterId":294,"chapterName":"完整项目","collect":false,"courseId":13,"desc":"kotlin版本组件化+mvvm项目架构","descMd":"","envelopePic":"https://wanandroid.com/resources/image/pc/default_project_img.jpg","fresh":false,"host":"","id":17371,"link":"https://www.wanandroid.com/blog/show/2941","niceDate":"2021-02-22 23:26","niceShareDate":"2021-02-22 23:26","origin":"","prefix":"","projectLink":"https://github.com/mouxuefei/MvvmModulePatternSample","publishTime":1614007611000,"realSuperChapterId":293,"selfVisible":0,"shareDate":1614007611000,"shareUser":"","superChapterId":294,"superChapterName":"开源项目主Tab","tags":[{"name":"项目","url":"/project/list/1?cid=294"}],"title":"kotlin版本组件化+mvvm项目架构","type":0,"userId":-1,"visible":1,"zan":0},{"apkLink":"","audit":1,"author":"Reign9201","canEdit":false,"chapterId":539,"chapterName":"未分类","collect":false,"courseId":13,"desc":"该图像处理库底层依赖的是 Google 开源的 libyuv 框架，因该框架功能之强大，支持图像格式之繁多，目前这里只针对 Android 中常用的图像格式之间互相操作进行了相关封装操作，方便 Java / Kotlin 进行无缝调用。","descMd":"","envelopePic":"https://www.wanandroid.com/resources/image/pc/default_project_img.jpg","fresh":false,"host":"","id":17344,"link":"https://www.wanandroid.com/blog/show/2940","niceDate":"2021-02-20 22:37","niceShareDate":"2021-02-20 22:37","origin":"","prefix":"","projectLink":"https://github.com/Reign9201/ImageUtils","publishTime":1613831850000,"realSuperChapterId":293,"selfVisible":0,"shareDate":1613831850000,"shareUser":"","superChapterId":294,"superChapterName":"开源项目主Tab","tags":[{"name":"项目","url":"/project/list/1?cid=539"}],"title":"一款常用的图像转换操作库","type":0,"userId":-1,"visible":1,"zan":0},{"apkLink":"","audit":1,"author":"YiPHaoYouWei","canEdit":false,"chapterId":539,"chapterName":"未分类","collect":false,"courseId":13,"desc":"Toast显示 自定义图片显示","descMd":"","envelopePic":"https://www.wanandroid.com/blogimgs/2439c542-19d6-4ee8-8dfc-92fd1a691064.png","fresh":false,"host":"","id":17328,"link":"https://www.wanandroid.com/blog/show/2939","niceDate":"2021-02-19 23:05","niceShareDate":"2021-02-19 23:05","origin":"","prefix":"","projectLink":"https://github.com/YiPHaoYouWei/ToastUitl","publishTime":1613747159000,"realSuperChapterId":293,"selfVisible":0,"shareDate":1613747159000,"shareUser":"","superChapterId":294,"superChapterName":"开源项目主Tab","tags":[{"name":"项目","url":"/project/list/1?cid=539"}],"title":"android Toast带图片显示","type":0,"userId":-1,"visible":1,"zan":0}],"offset":0,"over":false,"pageCount":40,"size":15,"total":598},"errorCode":0,"errorMsg":""}